…
``` r
filter(gapminder, continent=="Americas") %>% 
  group_by(country) %>%
  summarise(mean_country = mean(gdpPercap)) %>%
  arrange(mean_country)
```

    ## # A tibble: 25 x 2
    ##               country mean_country
    ##                <fctr>        <dbl>
    ##  1              Haiti     1620.739
    ##  2           Honduras     2834.413
    ##  3 Dominican Republic     2844.856
    ##  4            Bolivia     2961.229
    ##  5           Paraguay     3239.607
    ##  6          Nicaragua     3424.656
    ##  7          Guatemala     4015.403
    ##  8           Colombia     4195.343
    ##  9        El Salvador     4431.847
    ## 10         Costa Rica     5448.611
    ## # ... with 15 more rows
…
