…
Now I can do the final **unnesting**. But I'm going to need to do it in two parts because the linear and robust models have 2 parameters, but the quadratic model has 3 parameters, so I won't be able to put them all in the same unnested dataframe without some re-jigging.

First, I'll unnest the linear and robust model parameters.

``` r
(gap_nested_lm_rm <-  gap_nested %>%
                        dplyr::select(continent, country, tidy.lm, tidy.qm, tidy.rm) %>% 
                          unnest(tidy.lm, tidy.rm) %>%
                             dplyr::select(-names1) %>%
                                dplyr::rename(parameter=names, coefficient.lm=x, coefficient.rm=x1))
```

    ## # A tibble: 284 x 5
    ##    continent     country        parameter coefficient.lm coefficient.rm
    ##       <fctr>      <fctr>            <chr>          <dbl>          <dbl>
    ##  1      Asia Afghanistan      (Intercept)     29.9072949     29.9072949
    ##  2      Asia Afghanistan I(year - offset)      0.2753287      0.2753287
    ##  3    Europe     Albania      (Intercept)     59.2291282     59.9416820
    ##  4    Europe     Albania I(year - offset)      0.3346832      0.3160949
    ##  5    Africa     Algeria      (Intercept)     43.3749744     43.1580026
    ##  6    Africa     Algeria I(year - offset)      0.5692797      0.5758313
    ##  7    Africa      Angola      (Intercept)     32.1266538     32.1349259
    ##  8    Africa      Angola I(year - offset)      0.2093399      0.2090313
    ##  9  Americas   Argentina      (Intercept)     62.6884359     62.6550784
    ## 10  Americas   Argentina I(year - offset)      0.2317084      0.2327136
    ## # ... with 274 more rows

Now I'll unnest the quadratic model.

``` r
 (gap_nested_qm <- gap_nested %>%
                    dplyr::select(continent, country, tidy.qm) %>% 
                       unnest(tidy.qm) %>%
                         dplyr::rename(parameter=names, coefficient.qm=x))
```

    ## # A tibble: 426 x 4
    ##    continent     country            parameter coefficient.qm
    ##       <fctr>      <fctr>                <chr>          <dbl>
    ##  1      Asia Afghanistan          (Intercept)   28.178686813
    ##  2      Asia Afghanistan     I(year - offset)    0.482761638
    ##  3      Asia Afghanistan I((year - offset)^2)   -0.003771508
    ##  4    Europe     Albania          (Intercept)   56.853134615
    ##  5    Europe     Albania     I(year - offset)    0.619802448
    ##  6    Europe     Albania I((year - offset)^2)   -0.005183986
    ##  7    Africa     Algeria          (Intercept)   41.942236264
    ##  8    Africa     Algeria     I(year - offset)    0.741208292
    ##  9    Africa     Algeria I((year - offset)^2)   -0.003125974
    ## 10    Africa      Angola          (Intercept)   30.117670330
    ## # ... with 416 more rows
…
